0.551724 0.939959 0.551724 0.939959
640.448276 -480.864503 640.448276 -480.864503
-0.523732 -479.789047 -0.523732 -479.789047
640.448276 -220.604057 640.448276 -220.604057
0.551724 -220.604057 0.551724 -220.604057
340.395943 -219.528600 340.395943 -219.528600
339.320487 -479.789047 339.320487 -479.789047
339.320487 -0.135497 339.320487 -0.135497
639.372819 0.989959 706.051116 159.082049